Lab 6/part1/simulation/qsim/reset_circuit.msim.vcd
$comment
	File created using the following command:
		vcd file reset_circuit.msim.vcd -direction
$end
$date
	Mon Apr  6 17:39:36 2026
$end
$version
	ModelSim Version 10.5b
$end
$timescale
	1ps
$end

$scope module reset_circuit_vhd_vec_tst $end
$var wire 1 ! Clk $end
$var wire 1 " Clr_PC $end
$var wire 1 # Enable_PD $end
$var wire 1 $ Reset $end

$scope module i1 $end
$var wire 1 % gnd $end
$var wire 1 & vcc $end
$var wire 1 ' unknown $end
$var wire 1 ( devoe $end
$var wire 1 ) devclrn $end
$var wire 1 * devpor $end
$var wire 1 + ww_devoe $end
$var wire 1 , ww_devclrn $end
$var wire 1 - ww_devpor $end
$var wire 1 . ww_Reset $end
$var wire 1 / ww_Clk $end
$var wire 1 0 ww_Enable_PD $end
$var wire 1 1 ww_Clr_PC $end
$var wire 1 2 \Clk~inputclkctrl_INCLK_bus\ [3] $end
$var wire 1 3 \Clk~inputclkctrl_INCLK_bus\ [2] $end
$var wire 1 4 \Clk~inputclkctrl_INCLK_bus\ [1] $end
$var wire 1 5 \Clk~inputclkctrl_INCLK_bus\ [0] $end
$var wire 1 6 \Enable_PD~output_o\ $end
$var wire 1 7 \Clr_PC~output_o\ $end
$var wire 1 8 \Clk~input_o\ $end
$var wire 1 9 \Clk~inputclkctrl_outclk\ $end
$var wire 1 : \Reset~input_o\ $end
$var wire 1 ; \Add0~0_combout\ $end
$var wire 1 < \counter~31_combout\ $end
$var wire 1 = \Add0~1\ $end
$var wire 1 > \Add0~2_combout\ $end
$var wire 1 ? \counter~30_combout\ $end
$var wire 1 @ \Add0~3\ $end
$var wire 1 A \Add0~4_combout\ $end
$var wire 1 B \counter~4_combout\ $end
$var wire 1 C \Add0~5\ $end
$var wire 1 D \Add0~6_combout\ $end
$var wire 1 E \counter~1_combout\ $end
$var wire 1 F \Add0~7\ $end
$var wire 1 G \Add0~8_combout\ $end
$var wire 1 H \counter~2_combout\ $end
$var wire 1 I \Add0~9\ $end
$var wire 1 J \Add0~10_combout\ $end
$var wire 1 K \counter~3_combout\ $end
$var wire 1 L \Add0~11\ $end
$var wire 1 M \Add0~12_combout\ $end
$var wire 1 N \counter~5_combout\ $end
$var wire 1 O \Add0~13\ $end
$var wire 1 P \Add0~14_combout\ $end
$var wire 1 Q \counter~6_combout\ $end
$var wire 1 R \Add0~15\ $end
$var wire 1 S \Add0~16_combout\ $end
$var wire 1 T \counter~7_combout\ $end
$var wire 1 U \Add0~17\ $end
$var wire 1 V \Add0~18_combout\ $end
$var wire 1 W \counter~8_combout\ $end
$var wire 1 X \Add0~19\ $end
$var wire 1 Y \Add0~20_combout\ $end
$var wire 1 Z \counter~9_combout\ $end
$var wire 1 [ \Add0~21\ $end
$var wire 1 \ \Add0~22_combout\ $end
$var wire 1 ] \counter~10_combout\ $end
$var wire 1 ^ \Add0~23\ $end
$var wire 1 _ \Add0~24_combout\ $end
$var wire 1 ` \counter~11_combout\ $end
$var wire 1 a \Add0~25\ $end
$var wire 1 b \Add0~26_combout\ $end
$var wire 1 c \counter~12_combout\ $end
$var wire 1 d \Add0~27\ $end
$var wire 1 e \Add0~28_combout\ $end
$var wire 1 f \counter~13_combout\ $end
$var wire 1 g \Add0~29\ $end
$var wire 1 h \Add0~30_combout\ $end
$var wire 1 i \counter~14_combout\ $end
$var wire 1 j \Add0~31\ $end
$var wire 1 k \Add0~32_combout\ $end
$var wire 1 l \counter~15_combout\ $end
$var wire 1 m \Add0~33\ $end
$var wire 1 n \Add0~34_combout\ $end
$var wire 1 o \counter~16_combout\ $end
$var wire 1 p \Add0~35\ $end
$var wire 1 q \Add0~36_combout\ $end
$var wire 1 r \counter~17_combout\ $end
$var wire 1 s \Add0~37\ $end
$var wire 1 t \Add0~38_combout\ $end
$var wire 1 u \counter~18_combout\ $end
$var wire 1 v \Add0~39\ $end
$var wire 1 w \Add0~40_combout\ $end
$var wire 1 x \counter~19_combout\ $end
$var wire 1 y \Add0~41\ $end
$var wire 1 z \Add0~42_combout\ $end
$var wire 1 { \counter~20_combout\ $end
$var wire 1 | \Add0~43\ $end
$var wire 1 } \Add0~44_combout\ $end
$var wire 1 ~ \counter~21_combout\ $end
$var wire 1 !! \Add0~45\ $end
$var wire 1 "! \Add0~46_combout\ $end
$var wire 1 #! \counter~22_combout\ $end
$var wire 1 $! \Add0~47\ $end
$var wire 1 %! \Add0~48_combout\ $end
$var wire 1 &! \counter~23_combout\ $end
$var wire 1 '! \Add0~49\ $end
$var wire 1 (! \Add0~50_combout\ $end
$var wire 1 )! \counter~24_combout\ $end
$var wire 1 *! \Add0~51\ $end
$var wire 1 +! \Add0~52_combout\ $end
$var wire 1 ,! \counter~26_combout\ $end
$var wire 1 -! \Add0~53\ $end
$var wire 1 .! \Add0~54_combout\ $end
$var wire 1 /! \counter~27_combout\ $end
$var wire 1 0! \Add0~55\ $end
$var wire 1 1! \Add0~56_combout\ $end
$var wire 1 2! \counter~28_combout\ $end
$var wire 1 3! \Add0~57\ $end
$var wire 1 4! \Add0~58_combout\ $end
$var wire 1 5! \counter[29]~29_combout\ $end
$var wire 1 6! \Add0~59\ $end
$var wire 1 7! \Add0~60_combout\ $end
$var wire 1 8! \counter[30]~25_combout\ $end
$var wire 1 9! \Add0~61\ $end
$var wire 1 :! \Add0~62_combout\ $end
$var wire 1 ;! \counter~0_combout\ $end
$var wire 1 <! \LessThan0~5_combout\ $end
$var wire 1 =! \LessThan0~6_combout\ $end
$var wire 1 >! \LessThan0~7_combout\ $end
$var wire 1 ?! \LessThan0~8_combout\ $end
$var wire 1 @! \LessThan0~1_combout\ $end
$var wire 1 A! \LessThan0~2_combout\ $end
$var wire 1 B! \LessThan0~0_combout\ $end
$var wire 1 C! \LessThan0~3_combout\ $end
$var wire 1 D! \LessThan0~4_combout\ $end
$var wire 1 E! \LessThan0~9_combout\ $end
$var wire 1 F! \Enable_PD~0_combout\ $end
$var wire 1 G! \Enable_PD~reg0_q\ $end
$var wire 1 H! \Clr_PC~reg0_q\ $end
$var wire 1 I! counter [31] $end
$var wire 1 J! counter [30] $end
$var wire 1 K! counter [29] $end
$var wire 1 L! counter [28] $end
$var wire 1 M! counter [27] $end
$var wire 1 N! counter [26] $end
$var wire 1 O! counter [25] $end
$var wire 1 P! counter [24] $end
$var wire 1 Q! counter [23] $end
$var wire 1 R! counter [22] $end
$var wire 1 S! counter [21] $end
$var wire 1 T! counter [20] $end
$var wire 1 U! counter [19] $end
$var wire 1 V! counter [18] $end
$var wire 1 W! counter [17] $end
$var wire 1 X! counter [16] $end
$var wire 1 Y! counter [15] $end
$var wire 1 Z! counter [14] $end
$var wire 1 [! counter [13] $end
$var wire 1 \! counter [12] $end
$var wire 1 ]! counter [11] $end
$var wire 1 ^! counter [10] $end
$var wire 1 _! counter [9] $end
$var wire 1 `! counter [8] $end
$var wire 1 a! counter [7] $end
$var wire 1 b! counter [6] $end
$var wire 1 c! counter [5] $end
$var wire 1 d! counter [4] $end
$var wire 1 e! counter [3] $end
$var wire 1 f! counter [2] $end
$var wire 1 g! counter [1] $end
$var wire 1 h! counter [0] $end
$upscope $end
$upscope $end
$enddefinitions $end
#0
$dumpvars
0!
0"
0#
0$
0%
1&
x'
1(
1)
1*
1+
1,
1-
0.
0/
00
01
06
07
08
09
0:
0;
1<
1=
1>
0?
1@
1A
1B
0C
0D
0E
1F
0G
0H
0I
0J
0K
1L
0M
0N
0O
0P
0Q
1R
0S
0T
0U
0V
0W
1X
0Y
0Z
0[
0\
0]
1^
0_
0`
0a
0b
0c
1d
0e
0f
0g
0h
0i
1j
0k
0l
0m
0n
0o
1p
0q
0r
0s
0t
0u
1v
0w
0x
0y
0z
0{
1|
0}
0~
0!!
0"!
0#!
1$!
0%!
0&!
0'!
0(!
0)!
1*!
0+!
0,!
0-!
0.!
0/!
10!
01!
02!
03!
04!
05!
16!
07!
08!
09!
0:!
0;!
0<!
0=!
0>!
0?!
0@!
0A!
1B!
0C!
1D!
0E!
1F!
0G!
0H!
0I!
0J!
0K!
0L!
0M!
0N!
0O!
0P!
0Q!
0R!
0S!
0T!
0U!
0V!
0W!
0X!
0Y!
0Z!
0[!
0\!
0]!
0^!
0_!
0`!
0a!
0b!
0c!
0d!
0e!
0f!
0g!
0h!
12
13
14
05
$end
#20000
1!
1/
18
15
19
1G!
16
10
1#
#40000
0!
0/
08
05
09
#60000
1!
1/
18
15
19
#80000
0!
0/
08
05
09
#90000
1$
1.
1:
1;
0=
0A
1E!
1?
0F!
0>
0<
0?
#100000
1!
1/
18
15
19
1f!
0G!
1H!
0B!
0D!
17
06
11
00
1"
0#
#110000
0$
0.
0:
0;
1=
1>
1<
1?
#120000
0!
0/
08
05
09
#140000
1!
1/
18
15
19
1h!
1g!
0>
0@
1;
0=
1>
1@
0<
1A
0?
0B
0A
1?
1B
#160000
0!
0/
08
05
09
#180000
1!
1/
18
15
19
0h!
0;
1=
0>
0@
1<
1A
0?
0B
#200000
0!
0/
08
05
09
#220000
1!
1/
18
15
19
1h!
0g!
0f!
0A
1C
1B!
1>
1@
1;
0=
0>
0<
1A
0C
1?
1D!
1D
1B
1E
0E!
0D
0B
0?
1<
1B
0E
1F!
#240000
0!
0/
08
05
09
#260000
1!
1/
18
15
19
1G!
0H!
07
16
01
10
0"
1#
#280000
0!
0/
08
05
09
#300000
1!
1/
18
15
19
#320000
0!
0/
08
05
09
#340000
1!
1/
18
15
19
#360000
0!
1$
0/
1.
1:
08
05
0A
1E!
0<
0F!
09
#380000
1!
1/
18
15
19
0h!
1f!
0G!
1H!
0B!
0D!
17
06
11
00
1"
0#
#390000
0$
0.
0:
0;
1=
1>
1<
1?
#400000
0!
0/
08
05
09
#420000
1!
1/
18
15
19
1h!
1g!
0>
0@
1;
0=
1>
1@
0<
1A
0?
0B
0A
1?
1B
#440000
0!
0/
08
05
09
#460000
1!
1/
18
15
19
0h!
0;
1=
0>
0@
1<
1A
0?
0B
#480000
0!
0/
08
05
09
#500000
1!
1/
18
15
19
1h!
0g!
0f!
0A
1C
1B!
1>
1@
1;
0=
0>
0<
1A
0C
1?
1D!
1D
1B
1E
0E!
0D
0B
0?
1<
1B
0E
1F!
#520000
0!
0/
08
05
09
#540000
1!
1/
18
15
19
1G!
0H!
07
16
01
10
0"
1#
#560000
0!
0/
08
05
09
#580000
1!
1/
18
15
19
#600000
0!
0/
08
05
09
#620000
1!
1/
18
15
19
#640000
0!
0/
08
05
09
#660000
1!
1/
18
15
19
#680000
0!
0/
08
05
09
#690000
1$
1.
1:
0A
1E!
0<
0F!
#700000
1!
1/
18
15
19
0h!
1f!
0G!
1H!
0B!
0D!
17
06
11
00
1"
0#
#720000
0!
0/
08
05
09
#740000
1!
1/
18
15
19
#760000
0!
0/
08
05
09
#780000
1!
1/
18
15
19
#790000
0$
0.
0:
0;
1=
1>
1<
1?
#800000
0!
0/
08
05
09
#820000
1!
1/
18
15
19
1h!
1g!
0>
0@
1;
0=
1>
1@
0<
1A
0?
0B
0A
1?
1B
#840000
0!
0/
08
05
09
#860000
1!
1/
18
15
19
0h!
0;
1=
0>
0@
1<
1A
0?
0B
#880000
0!
0/
08
05
09
#900000
1!
1/
18
15
19
1h!
0g!
0f!
0A
1C
1B!
1>
1@
1;
0=
0>
0<
1A
0C
1?
1D!
1D
1B
1E
0E!
0D
0B
0?
1<
1B
0E
1F!
#920000
0!
0/
08
05
09
#940000
1!
1/
18
15
19
1G!
0H!
07
16
01
10
0"
1#
#960000
0!
0/
08
05
09
#980000
1!
1/
18
15
19
