Lab 6/part2/simulation/qsim/CPU_TEST_Sim_src_top_long.msim.vcd
$date
	Mon Apr  6 18:08:37 2026
$end
$version
	ModelSim Version 10.5b
$end
$timescale
	1ps
$end

$scope module cpu_test_sim $end
$var wire 1 ! cpuClk $end
$var wire 1 " memClk $end
$var wire 1 # rst $end
$var wire 1 $ outA [31] $end
$var wire 1 % outA [30] $end
$var wire 1 & outA [29] $end
$var wire 1 ' outA [28] $end
$var wire 1 ( outA [27] $end
$var wire 1 ) outA [26] $end
$var wire 1 * outA [25] $end
$var wire 1 + outA [24] $end
$var wire 1 , outA [23] $end
$var wire 1 - outA [22] $end
$var wire 1 . outA [21] $end
$var wire 1 / outA [20] $end
$var wire 1 0 outA [19] $end
$var wire 1 1 outA [18] $end
$var wire 1 2 outA [17] $end
$var wire 1 3 outA [16] $end
$var wire 1 4 outA [15] $end
$var wire 1 5 outA [14] $end
$var wire 1 6 outA [13] $end
$var wire 1 7 outA [12] $end
$var wire 1 8 outA [11] $end
$var wire 1 9 outA [10] $end
$var wire 1 : outA [9] $end
$var wire 1 ; outA [8] $end
$var wire 1 < outA [7] $end
$var wire 1 = outA [6] $end
$var wire 1 > outA [5] $end
$var wire 1 ? outA [4] $end
$var wire 1 @ outA [3] $end
$var wire 1 A outA [2] $end
$var wire 1 B outA [1] $end
$var wire 1 C outA [0] $end
$var wire 1 D outB [31] $end
$var wire 1 E outB [30] $end
$var wire 1 F outB [29] $end
$var wire 1 G outB [28] $end
$var wire 1 H outB [27] $end
$var wire 1 I outB [26] $end
$var wire 1 J outB [25] $end
$var wire 1 K outB [24] $end
$var wire 1 L outB [23] $end
$var wire 1 M outB [22] $end
$var wire 1 N outB [21] $end
$var wire 1 O outB [20] $end
$var wire 1 P outB [19] $end
$var wire 1 Q outB [18] $end
$var wire 1 R outB [17] $end
$var wire 1 S outB [16] $end
$var wire 1 T outB [15] $end
$var wire 1 U outB [14] $end
$var wire 1 V outB [13] $end
$var wire 1 W outB [12] $end
$var wire 1 X outB [11] $end
$var wire 1 Y outB [10] $end
$var wire 1 Z outB [9] $end
$var wire 1 [ outB [8] $end
$var wire 1 \ outB [7] $end
$var wire 1 ] outB [6] $end
$var wire 1 ^ outB [5] $end
$var wire 1 _ outB [4] $end
$var wire 1 ` outB [3] $end
$var wire 1 a outB [2] $end
$var wire 1 b outB [1] $end
$var wire 1 c outB [0] $end
$var wire 1 d outC $end
$var wire 1 e outZ $end
$var wire 1 f outIR [31] $end
$var wire 1 g outIR [30] $end
$var wire 1 h outIR [29] $end
$var wire 1 i outIR [28] $end
$var wire 1 j outIR [27] $end
$var wire 1 k outIR [26] $end
$var wire 1 l outIR [25] $end
$var wire 1 m outIR [24] $end
$var wire 1 n outIR [23] $end
$var wire 1 o outIR [22] $end
$var wire 1 p outIR [21] $end
$var wire 1 q outIR [20] $end
$var wire 1 r outIR [19] $end
$var wire 1 s outIR [18] $end
$var wire 1 t outIR [17] $end
$var wire 1 u outIR [16] $end
$var wire 1 v outIR [15] $end
$var wire 1 w outIR [14] $end
$var wire 1 x outIR [13] $end
$var wire 1 y outIR [12] $end
$var wire 1 z outIR [11] $end
$var wire 1 { outIR [10] $end
$var wire 1 | outIR [9] $end
$var wire 1 } outIR [8] $end
$var wire 1 ~ outIR [7] $end
$var wire 1 !! outIR [6] $end
$var wire 1 "! outIR [5] $end
$var wire 1 #! outIR [4] $end
$var wire 1 $! outIR [3] $end
$var wire 1 %! outIR [2] $end
$var wire 1 &! outIR [1] $end
$var wire 1 '! outIR [0] $end
$var wire 1 (! outPC [31] $end
$var wire 1 )! outPC [30] $end
$var wire 1 *! outPC [29] $end
$var wire 1 +! outPC [28] $end
$var wire 1 ,! outPC [27] $end
$var wire 1 -! outPC [26] $end
$var wire 1 .! outPC [25] $end
$var wire 1 /! outPC [24] $end
$var wire 1 0! outPC [23] $end
$var wire 1 1! outPC [22] $end
$var wire 1 2! outPC [21] $end
$var wire 1 3! outPC [20] $end
$var wire 1 4! outPC [19] $end
$var wire 1 5! outPC [18] $end
$var wire 1 6! outPC [17] $end
$var wire 1 7! outPC [16] $end
$var wire 1 8! outPC [15] $end
$var wire 1 9! outPC [14] $end
$var wire 1 :! outPC [13] $end
$var wire 1 ;! outPC [12] $end
$var wire 1 <! outPC [11] $end
$var wire 1 =! outPC [10] $end
$var wire 1 >! outPC [9] $end
$var wire 1 ?! outPC [8] $end
$var wire 1 @! outPC [7] $end
$var wire 1 A! outPC [6] $end
$var wire 1 B! outPC [5] $end
$var wire 1 C! outPC [4] $end
$var wire 1 D! outPC [3] $end
$var wire 1 E! outPC [2] $end
$var wire 1 F! outPC [1] $end
$var wire 1 G! outPC [0] $end
$var wire 1 H! addrOut [5] $end
$var wire 1 I! addrOut [4] $end
$var wire 1 J! addrOut [3] $end
$var wire 1 K! addrOut [2] $end
$var wire 1 L! addrOut [1] $end
$var wire 1 M! addrOut [0] $end
$var wire 1 N! memDataIn [31] $end
$var wire 1 O! memDataIn [30] $end
$var wire 1 P! memDataIn [29] $end
$var wire 1 Q! memDataIn [28] $end
$var wire 1 R! memDataIn [27] $end
$var wire 1 S! memDataIn [26] $end
$var wire 1 T! memDataIn [25] $end
$var wire 1 U! memDataIn [24] $end
$var wire 1 V! memDataIn [23] $end
$var wire 1 W! memDataIn [22] $end
$var wire 1 X! memDataIn [21] $end
$var wire 1 Y! memDataIn [20] $end
$var wire 1 Z! memDataIn [19] $end
$var wire 1 [! memDataIn [18] $end
$var wire 1 \! memDataIn [17] $end
$var wire 1 ]! memDataIn [16] $end
$var wire 1 ^! memDataIn [15] $end
$var wire 1 _! memDataIn [14] $end
$var wire 1 `! memDataIn [13] $end
$var wire 1 a! memDataIn [12] $end
$var wire 1 b! memDataIn [11] $end
$var wire 1 c! memDataIn [10] $end
$var wire 1 d! memDataIn [9] $end
$var wire 1 e! memDataIn [8] $end
$var wire 1 f! memDataIn [7] $end
$var wire 1 g! memDataIn [6] $end
$var wire 1 h! memDataIn [5] $end
$var wire 1 i! memDataIn [4] $end
$var wire 1 j! memDataIn [3] $end
$var wire 1 k! memDataIn [2] $end
$var wire 1 l! memDataIn [1] $end
$var wire 1 m! memDataIn [0] $end
$var wire 1 n! memDataOut [31] $end
$var wire 1 o! memDataOut [30] $end
$var wire 1 p! memDataOut [29] $end
$var wire 1 q! memDataOut [28] $end
$var wire 1 r! memDataOut [27] $end
$var wire 1 s! memDataOut [26] $end
$var wire 1 t! memDataOut [25] $end
$var wire 1 u! memDataOut [24] $end
$var wire 1 v! memDataOut [23] $end
$var wire 1 w! memDataOut [22] $end
$var wire 1 x! memDataOut [21] $end
$var wire 1 y! memDataOut [20] $end
$var wire 1 z! memDataOut [19] $end
$var wire 1 {! memDataOut [18] $end
$var wire 1 |! memDataOut [17] $end
$var wire 1 }! memDataOut [16] $end
$var wire 1 ~! memDataOut [15] $end
$var wire 1 !" memDataOut [14] $end
$var wire 1 "" memDataOut [13] $end
$var wire 1 #" memDataOut [12] $end
$var wire 1 $" memDataOut [11] $end
$var wire 1 %" memDataOut [10] $end
$var wire 1 &" memDataOut [9] $end
$var wire 1 '" memDataOut [8] $end
$var wire 1 (" memDataOut [7] $end
$var wire 1 )" memDataOut [6] $end
$var wire 1 *" memDataOut [5] $end
$var wire 1 +" memDataOut [4] $end
$var wire 1 ," memDataOut [3] $end
$var wire 1 -" memDataOut [2] $end
$var wire 1 ." memDataOut [1] $end
$var wire 1 /" memDataOut [0] $end
$var wire 1 0" T_Info [2] $end
$var wire 1 1" T_Info [1] $end
$var wire 1 2" T_Info [0] $end
$var wire 1 3" wen_mem $end
$var wire 1 4" en_mem $end
$upscope $end
$enddefinitions $end
#0
$dumpvars
0!
0"
1#
0d
0e
03"
04"
0$
0%
0&
0'
0(
0)
0*
0+
0,
0-
0.
0/
00
01
02
03
04
05
06
07
08
09
0:
0;
0<
0=
0>
0?
0@
0A
0B
0C
0D
0E
0F
0G
0H
0I
0J
0K
0L
0M
0N
0O
0P
0Q
0R
0S
0T
0U
0V
0W
0X
0Y
0Z
0[
0\
0]
0^
0_
0`
0a
0b
0c
0f
0g
0h
0i
0j
0k
0l
0m
0n
0o
0p
0q
0r
0s
0t
0u
0v
0w
0x
0y
0z
0{
0|
0}
0~
0!!
0"!
0#!
0$!
0%!
0&!
0'!
x(!
x)!
x*!
x+!
x,!
x-!
x.!
x/!
x0!
x1!
x2!
x3!
x4!
x5!
x6!
x7!
x8!
x9!
x:!
x;!
x<!
x=!
x>!
x?!
x@!
xA!
xB!
xC!
xD!
xE!
xF!
xG!
xH!
xI!
xJ!
xK!
xL!
xM!
0N!
0O!
0P!
0Q!
0R!
0S!
0T!
0U!
0V!
0W!
0X!
0Y!
0Z!
0[!
0\!
0]!
0^!
0_!
0`!
0a!
0b!
0c!
0d!
0e!
0f!
0g!
0h!
0i!
0j!
0k!
0l!
0m!
0n!
0o!
0p!
0q!
0r!
0s!
0t!
0u!
0v!
0w!
0x!
0y!
0z!
0{!
0|!
0}!
0~!
0!"
0""
0#"
0$"
0%"
0&"
0'"
0("
0)"
0*"
0+"
0,"
0-"
0."
0/"
00"
01"
12"
$end
#10000
1"
1m!
1k!
#20000
1!
0"
#30000
1"
#40000
0#
0!
0"
#50000
1"
#60000
1!
0"
0G!
0F!
0E!
0D!
0C!
0B!
0A!
0@!
0?!
0>!
0=!
0<!
0;!
0:!
09!
08!
07!
06!
05!
04!
03!
02!
01!
00!
0/!
0.!
0-!
0,!
0+!
0*!
0)!
0(!
0M!
0L!
0K!
0J!
0I!
0H!
#70000
1"
#80000
0!
0"
#90000
1"
#100000
1!
0"
#110000
1"
#120000
0!
0"
#130000
1"
#140000
1!
0"
#150000
1"
#160000
0!
0"
#170000
1"
#180000
1!
0"
1/"
1-"
#190000
1"
#200000
0!
0"
#210000
1"
#220000
1!
0"
02"
11"
1'!
1%!
#230000
1"
#240000
0!
0"
#250000
1"
#260000
1!
0"
01"
10"
1G!
1C
1A
1M!
0/"
0-"
#270000
1"
0m!
1l!
1Q!
#280000
0!
0"
#290000
1"
#300000
1!
0"
12"
00"
1."
1-"
1q!
#310000
1"
#320000
0!
0"
#330000
1"
#340000
1!
0"
02"
11"
0'!
1&!
1i
#350000
1"
#360000
0!
0"
#370000
1"
#380000
1!
0"
01"
10"
0G!
1F!
1b
1a
0M!
1L!
0."
0-"
0q!
#390000
1"
0l!
0k!
1P!
1O!
#400000
0!
0"
#410000
1"
#420000
1!
0"
12"
00"
1q!
1p!
1o!
#430000
1"
#440000
0!
0"
#450000
1"
#460000
1!
0"
02"
11"
0&!
0%!
1h
1g
0q!
0p!
0o!
#470000
1"
#480000
0!
0"
#490000
1"
#500000
1!
0"
01"
10"
1G!
1M!
1/"
1."
1,"
#510000
1"
1m!
1l!
1U!
#520000
0!
0"
#530000
1"
#540000
1!
0"
12"
00"
1B
0A
1@
0,"
1u!
1q!
1p!
1o!
#550000
1"
#560000
0!
0"
#570000
1"
#580000
1!
0"
02"
11"
1'!
1&!
1m
0/"
0."
0u!
0q!
0p!
0o!
#590000
1"
#600000
0!
0"
#610000
1"
#620000
1!
0"
01"
10"
0G!
0F!
1E!
0M!
0L!
1K!
1."
1-"
1,"
#630000
1"
0m!
0l!
0U!
1T!
#640000
0!
0"
#650000
1"
#660000
1!
0"
12"
00"
0C
1A
0."
0-"
0,"
1t!
1q!
1p!
1o!
#670000
1"
#680000
0!
0"
#690000
1"
#700000
1!
0"
02"
11"
0'!
0&!
0m
1l
0t!
0q!
0p!
0o!
#710000
1"
#720000
0!
0"
#730000
1"
#740000
1!
0"
01"
10"
1G!
1M!
1,"
#750000
1"
1U!
#760000
0!
0"
#770000
1"
#780000
1!
0"
12"
00"
1d
0B
0A
0,"
1u!
1t!
1q!
1p!
1o!
#790000
1"
#800000
0!
0"
#810000
1"
#820000
1!
0"
02"
11"
1m
0u!
0t!
0q!
0p!
0o!
#830000
1"
#840000
0!
0"
#850000
1"
#860000
1!
0"
01"
10"
0G!
1F!
0M!
1L!
1/"
1,"
#870000
1"
0U!
1S!
1R!
#880000
0!
0"
#890000
1"
#900000
1!
0"
12"
00"
0d
1C
0/"
0,"
1t!
1s!
1r!
1q!
1p!
1o!
#910000
1"
#920000
0!
0"
#930000
1"
#940000
1!
0"
02"
11"
0m
1k
1j
0t!
0s!
0r!
0q!
0p!
0o!
#950000
1"
#960000
0!
0"
#970000
1"
#980000
1!
0"
01"
10"
1G!
1M!
1,"
#990000
1"
0T!
0R!
#1000000
0!
0"
#1010000
1"
#1020000
1!
0"
12"
00"
1d
0C
0,"
1s!
1q!
1p!
1o!
#1030000
1"
#1040000
0!
0"
#1050000
1"
#1060000
1!
0"
02"
11"
0l
0j
0s!
0q!
0p!
0o!
#1070000
1"
#1080000
0!
0"
#1090000
1"
#1100000
1!
0"
01"
10"
0G!
0F!
0E!
1D!
0M!
0L!
0K!
1J!
1+"
#1110000
1"
1U!
1T!
1R!
#1120000
0!
0"
#1130000
1"
#1140000
1!
0"
12"
00"
0d
0@
1?
0+"
1u!
1t!
1s!
1r!
1q!
1p!
1o!
#1150000
1"
#1160000
0!
0"
#1170000
1"
#1180000
1!
0"
02"
11"
1m
1l
1j
0u!
0t!
0s!
0r!
0q!
0p!
0o!
#1190000
1"
#1200000
0!
0"
#1210000
1"
#1220000
1!
0"
01"
10"
1G!
1M!
1,"
#1230000
1"
1j!
0T!
0S!
#1240000
0!
0"
#1250000
1"
#1260000
1!
0"
12"
00"
1@
0?
1u!
1r!
1q!
1p!
1o!
#1270000
1"
#1280000
0!
0"
#1290000
1"
#1300000
1!
0"
02"
11"
1$!
0l
0k
0,"
0u!
0r!
0q!
0p!
0o!
#1310000
1"
#1320000
0!
0"
#1330000
1"
#1340000
1!
0"
01"
10"
0G!
1F!
0M!
1L!
1,"
#1350000
1"
1m!
1k!
0j!
1S!
#1360000
0!
0"
#1370000
1"
#1380000
1!
0"
12"
00"
1/"
1-"
0,"
1u!
1s!
1r!
1q!
1p!
1o!
#1390000
1"
#1400000
0!
0"
#1410000
1"
#1420000
1!
0"
02"
11"
1'!
1%!
0$!
1k
0/"
0-"
0u!
0s!
0r!
0q!
0p!
0o!
#1430000
1"
#1440000
0!
0"
#1450000
1"
#1460000
1!
0"
01"
10"
1G!
1M!
1/"
1-"
1,"
#1470000
1"
0m!
0k!
0R!
#1480000
0!
0"
#1490000
1"
#1500000
1!
0"
12"
00"
1C
1A
0/"
0-"
0,"
1u!
1s!
1q!
1p!
1o!
#1510000
1"
#1520000
0!
0"
#1530000
1"
#1540000
1!
0"
02"
11"
0'!
0%!
0j
0u!
0s!
0q!
0p!
0o!
#1550000
1"
#1560000
0!
0"
#1570000
1"
#1580000
1!
0"
01"
10"
0G!
0F!
1E!
0M!
0L!
1K!
0C
0A
0@
#1590000
1"
0U!
1T!
#1600000
0!
0"
#1610000
1"
#1620000
1!
0"
12"
00"
1t!
1s!
1q!
1p!
1o!
#1630000
1"
#1640000
0!
0"
#1650000
1"
#1660000
1!
0"
02"
11"
0m
1l
0t!
0s!
0q!
0p!
0o!
#1670000
1"
#1680000
0!
0"
#1690000
1"
#1700000
1!
0"
01"
10"
1G!
1M!
0b
0a
#1710000
1"
1U!
#1720000
0!
0"
#1730000
1"
#1740000
1!
0"
12"
00"
1u!
1t!
1s!
1q!
1p!
1o!
#1750000
1"
#1760000
0!
0"
#1770000
1"
#1780000
1!
0"
02"
11"
1m
0u!
0t!
0s!
0q!
0p!
0o!
#1790000
1"
#1800000
0!
0"
#1810000
1"
#1820000
1!
0"
01"
10"
0G!
1F!
0M!
1L!
#1830000
1"
0U!
0T!
0S!
1R!
#1840000
0!
0"
#1850000
1"
#1860000
1!
0"
12"
00"
1r!
1q!
1p!
1o!
#1870000
1"
#1880000
0!
0"
#1890000
1"
#1900000
1!
0"
02"
11"
0m
0l
0k
1j
0r!
0q!
0p!
0o!
#1910000
1"
#1920000
0!
0"
#1930000
1"
#1940000
1!
0"
01"
10"
1G!
1M!
#1950000
1"
1m!
1l!
1k!
1j!
1i!
1h!
1g!
1f!
1e!
1d!
1c!
1b!
1a!
1`!
1_!
1^!
0R!
0Q!
0P!
0O!
#1960000
0!
0"
#1970000
1"
#1980000
1!
0"
12"
00"
1/"
1."
1-"
1,"
1+"
1*"
1)"
1("
1'"
1&"
1%"
1$"
1#"
1""
1!"
1~!
#1990000
1"
#2000000
0!
0"
#2010000
1"
#2020000
1!
0"
02"
11"
1'!
1&!
1%!
1$!
1#!
1"!
1!!
1~
1}
1|
1{
1z
1y
1x
1w
1v
0j
0i
0h
0g
0/"
0."
0-"
0,"
0+"
0*"
0)"
0("
0'"
0&"
0%"
0$"
0#"
0""
0!"
0~!
1/"
1."
1-"
1,"
1+"
1*"
1)"
1("
1'"
1&"
1%"
1$"
1#"
1""
1!"
1~!
#2030000
1"
#2040000
0!
0"
#2050000
1"
#2060000
1!
0"
01"
10"
0G!
0F!
0E!
0D!
1C!
1C
1B
1A
1@
1?
1>
1=
1<
1;
1:
19
18
17
16
15
14
0M!
0L!
0K!
0J!
1I!
0/"
0."
0-"
0,"
0+"
0*"
0)"
0("
0'"
0&"
0%"
0$"
0#"
0""
0!"
0~!
#2070000
1"
0l!
0k!
0j!
0h!
0g!
0f!
0d!
0c!
0b!
0`!
0_!
0^!
1O!
#2080000
0!
0"
#2090000
1"
#2100000
1!
0"
12"
00"
1/"
1+"
1'"
1#"
1o!
#2110000
1"
#2120000
0!
0"
#2130000
1"
#2140000
1!
0"
02"
11"
0&!
0%!
0$!
0"!
0!!
0~
0|
0{
0z
0x
0w
0v
1g
0/"
0+"
0'"
0#"
0o!
#2150000
1"
#2160000
0!
0"
#2170000
1"
#2180000
1!
0"
01"
10"
1G!
1M!
1}!
1y!
1u!
1q!
#2190000
1"
0m!
0i!
1h!
0e!
0a!
1P!
0O!
#2200000
0!
0"
#2210000
1"
#2220000
1!
0"
12"
00"
0C
0B
0A
0@
0?
0>
0=
0<
0;
0:
09
08
07
06
05
04
13
1/
1+
1'
1*"
0}!
0y!
0u!
0q!
1p!
#2230000
1"
#2240000
0!
0"
#2250000
1"
#2260000
1!
0"
02"
11"
0'!
0#!
1"!
0}
0y
1h
0g
13"
14"
0*"
0p!
#2270000
1"
#2280000
0!
0"
#2290000
1"
#2300000
1!
0"
01"
10"
0G!
1F!
03"
04"
0M!
1L!
#2310000
1"
1m!
1Q!
#2320000
0!
0"
#2330000
1"
#2340000
1!
0"
12"
00"
1/"
1*"
1q!
1p!
#2350000
1"
#2360000
0!
0"
#2370000
1"
#2380000
1!
0"
02"
11"
13"
14"
1'!
1i
0/"
0*"
0q!
0p!
#2390000
1"
#2400000
0!
0"
#2410000
1"
#2420000
1!
0"
01"
10"
1G!
03"
04"
1M!
#2430000
1"
0m!
0P!
1N!
#2440000
0!
0"
#2450000
1"
#2460000
1!
0"
12"
00"
1*"
1q!
1n!
#2470000
1"
#2480000
0!
0"
#2490000
1"
#2500000
1!
0"
02"
11"
13"
14"
0'!
0h
1f
03"
04"
0*"
0q!
0n!
1*"
1q!
1n!
#2510000
1"
#2520000
0!
0"
#2530000
1"
#2540000
1!
0"
01"
10"
0G!
0F!
1E!
1>
03
0/
0+
1$
14"
0M!
0L!
1K!
0*"
0q!
0n!
#2550000
1"
1m!
0Q!
1P!
#2560000
0!
0"
1}!
1y!
1u!
1q!
#2570000
1"
#2580000
1!
0"
12"
00"
0>
13
1/
1+
0$
04"
1/"
1*"
0}!
0y!
0u!
0q!
1p!
1n!
#2590000
1"
#2600000
0!
0"
#2610000
1"
#2620000
1!
0"
02"
11"
1'!
0i
1h
#2630000
1"
#2640000
0!
0"
#2650000
1"
#2660000
1!
0"
01"
10"
1G!
1c
1^
1F
1D
14"
1M!
0/"
0*"
0p!
0n!
#2670000
1"
0m!
0h!
1U!
1T!
1R!
1Q!
1O!
0N!
#2680000
0!
0"
#2690000
1"
#2700000
1!
0"
12"
00"
0c
0^
0F
0D
04"
1u!
1t!
1r!
1q!
1p!
1o!
#2710000
1"
#2720000
0!
0"
#2730000
1"
#2740000
1!
0"
02"
11"
0'!
0"!
1m
1l
1j
1i
1g
0f
0u!
0t!
0r!
0q!
0p!
0o!
#2750000
1"
#2760000
0!
0"
#2770000
1"
#2780000
1!
0"
01"
10"
0G!
1F!
0M!
1L!
#2790000
1"
1m!
0U!
0T!
0R!
0Q!
0P!
0O!
#2800000
0!
0"
#2810000
1"
#2820000
1!
0"
12"
00"
03
0/
0+
0'
1/"
#2830000
1"
#2840000
0!
0"
#2850000
1"
#2860000
1!
0"
02"
11"
1'!
0m
0l
0j
0i
0h
0g
0/"
1/"
#2870000
1"
#2880000
0!
0"
#2890000
1"
#2900000
1!
0"
01"
10"
1G!
1C
1M!
0/"
#2910000
1"
1Q!
#2920000
0!
0"
#2930000
1"
#2940000
1!
0"
12"
00"
1/"
1q!
#2950000
1"
#2960000
0!
0"
#2970000
1"
#2980000
1!
0"
02"
11"
1i
#2990000
1"
#3000000
0!
0"
#3010000
1"
#3020000
1!
0"
01"
10"
0G!
0F!
0E!
1D!
1c
0M!
0L!
0K!
1J!
0/"
0q!
#3030000
1"
0m!
1T!
1P!
1O!
#3040000
0!
0"
#3050000
1"
#3060000
1!
0"
12"
00"
1t!
1q!
1p!
1o!
#3070000
1"
#3080000
0!
0"
#3090000
1"
#3100000
1!
0"
02"
11"
0'!
1l
1h
1g
0t!
0q!
0p!
0o!
#3110000
1"
#3120000
0!
0"
#3130000
1"
#3140000
1!
0"
01"
10"
1G!
1M!
#3150000
1"
1k!
1j!
1i!
0T!
0Q!
#3160000
0!
0"
#3170000
1"
#3180000
1!
0"
12"
00"
1d
1e
0C
1-"
1,"
1+"
1p!
1o!
#3190000
1"
#3200000
0!
0"
#3210000
1"
#3220000
1!
0"
02"
11"
1%!
1$!
1#!
0l
0i
0-"
0,"
0+"
0p!
0o!
#3230000
1"
#3240000
0!
0"
#3250000
1"
#3260000
1!
0"
01"
10"
0G!
1F!
0M!
1L!
#3270000
1"
1m!
1l!
1h!
1g!
1f!
1e!
1d!
1c!
1b!
1a!
1`!
1_!
1^!
0P!
0O!
#3280000
0!
0"
#3290000
1"
#3300000
1!
0"
12"
00"
0F!
1E!
0L!
1K!
1/"
1."
1-"
1,"
1+"
1*"
1)"
1("
1'"
1&"
1%"
1$"
1#"
1""
1!"
1~!
#3310000
1"
0m!
0k!
0j!
0i!
0g!
0f!
0e!
0c!
0b!
0a!
0_!
0^!
0/"
0-"
0,"
0+"
0)"
0("
0'"
0%"
0$"
0#"
0!"
0~!
#3320000
0!
0"
#3330000
1"
#3340000
1!
0"
02"
11"
1&!
0%!
0$!
0#!
1"!
1|
1x
0h
0g
0."
0*"
0&"
0""
1."
1*"
1&"
1""
#3350000
1"
#3360000
0!
0"
#3370000
1"
#3380000
1!
0"
01"
10"
1G!
1B
1>
1:
16
1M!
0."
0*"
0&"
0""
#3390000
1"
1m!
0h!
0d!
0`!
#3400000
0!
0"
#3410000
1"
#3420000
1!
0"
12"
00"
1/"
1."
#3430000
1"
#3440000
0!
0"
#3450000
1"
#3460000
1!
0"
02"
11"
1'!
0"!
0|
0x
#3470000
1"
#3480000
0!
0"
#3490000
1"
#3500000
1!
0"
01"
10"
0G!
1F!
1C
0>
0:
06
0M!
1L!
0/"
0."
#3510000
1"
0l!
1Q!
#3520000
0!
0"
#3530000
1"
#3540000
1!
0"
12"
00"
1/"
1q!
#3550000
1"
#3560000
0!
0"
#3570000
1"
#3580000
1!
0"
02"
11"
0&!
1i
#3590000
1"
#3600000
0!
0"
#3610000
1"
#3620000
1!
0"
01"
10"
1G!
1M!
0/"
0q!
#3630000
1"
0m!
1T!
1P!
1O!
#3640000
0!
0"
#3650000
1"
#3660000
1!
0"
12"
00"
1t!
1q!
1p!
1o!
#3670000
1"
#3680000
0!
0"
#3690000
1"
#3700000
1!
0"
02"
11"
0'!
1l
1h
1g
0t!
0q!
0p!
0o!
#3710000
1"
#3720000
0!
0"
#3730000
1"
#3740000
1!
0"
01"
10"
0G!
0F!
0E!
0D!
0C!
1B!
0M!
0L!
0K!
0J!
0I!
1H!
1."
#3750000
1"
1m!
1l!
1h!
0T!
0Q!
0P!
0O!
1N!
#3760000
0!
0"
#3770000
1"
#3780000
1!
0"
12"
00"
0e
0C
1/"
1*"
1n!
#3790000
1"
#3800000
0!
0"
#3810000
1"
#3820000
1!
0"
02"
11"
1'!
1&!
1"!
0l
0i
0h
0g
1f
0/"
0."
0*"
0n!
#3830000
1"
#3840000
0!
0"
#3850000
1"
#3860000
1!
0"
01"
10"
1G!
1M!
#3870000
1"
0m!
1k!
1j!
1g!
1f!
1d!
1c!
1b!
1`!
1_!
1^!
0N!
#3880000
0!
0"
#3890000
1"
#3900000
1!
0"
12"
00"
1F!
1L!
1."
1-"
1,"
1*"
1)"
1("
1&"
1%"
1$"
1""
1!"
1~!
#3910000
1"
1m!
0k!
0j!
1i!
0g!
0f!
1e!
0c!
0b!
1a!
0_!
0^!
1/"
0-"
0,"
1+"
0)"
0("
1'"
0%"
0$"
1#"
0!"
0~!
#3920000
0!
0"
#3930000
1"
#3940000
1!
0"
02"
11"
1#!
1}
1|
1y
1x
0f
0/"
0."
0+"
0*"
0'"
0&"
0#"
0""
1/"
1."
1+"
1*"
1'"
1&"
1#"
1""
#3950000
1"
#3960000
0!
0"
#3970000
1"
#3980000
1!
0"
01"
10"
0G!
0F!
1E!
1C
1?
1>
1;
1:
17
16
0M!
0L!
1K!
0/"
0."
0+"
0*"
0'"
0&"
0#"
0""
#3990000
1"
1k!
0i!
0e!
0d!
0a!
0`!
1Q!
1O!
#4000000
0!
0"
#4010000
1"
#4020000
1!
0"
12"
00"
1/"
1."
1-"
1*"
1q!
1o!
#4030000
1"
#4040000
0!
0"
#4050000
1"
#4060000
1!
0"
02"
11"
1%!
0#!
0}
0|
0y
0x
1i
1g
0/"
0."
0-"
0*"
0q!
0o!
#4070000
1"
#4080000
0!
0"
#4090000
1"
#4100000
1!
0"
01"
10"
1G!
1M!
#4110000
1"
0m!
0l!
0h!
1g!
1c!
1_!
0Q!
0O!
#4120000
0!
0"
#4130000
1"
#4140000
1!
0"
12"
00"
1F!
0C
0B
0?
0>
0;
0:
07
06
1L!
1-"
1)"
1%"
1!"
#4150000
1"
1l!
1h!
1d!
1`!
1."
1*"
1&"
1""
#4160000
0!
0"
#4170000
1"
#4180000
1!
0"
02"
11"
0'!
1!!
1|
1{
1x
1w
0i
0g
0."
0-"
0*"
0)"
0&"
0%"
0""
0!"
1."
1-"
1*"
1)"
1&"
1%"
1""
1!"
#4190000
1"
#4200000
0!
0"
#4210000
1"
#4220000
1!
0"
01"
10"
0G!
0F!
0E!
1D!
1B
1A
1>
1=
1:
19
16
15
0M!
0L!
0K!
1J!
0."
0-"
0*"
0)"
0&"
0%"
0""
0!"
#4230000
1"
0l!
0k!
1j!
0g!
0d!
0c!
0`!
0_!
1Q!
1O!
#4240000
0!
0"
#4250000
1"
#4260000
1!
0"
12"
00"
1,"
1*"
1q!
1o!
#4270000
1"
#4280000
0!
0"
#4290000
1"
#4300000
1!
0"
02"
11"
0&!
0%!
1$!
0!!
0|
0{
0x
0w
1i
1g
0,"
0*"
0q!
0o!
#4310000
1"
#4320000
0!
0"
#4330000
1"
#4340000
1!
0"
01"
10"
1G!
1M!
#4350000
1"
0j!
0h!
0Q!
0O!
#4360000
0!
0"
#4370000
1"
#4380000
1!
0"
12"
00"
0G!
0B
0A
0>
0=
0:
09
06
05
0M!
#4390000
1"
1j!
1h!
1Q!
1O!
1,"
1*"
1q!
1o!
#4400000
0!
0"
#4410000
1"
#4420000
1!
0"
02"
11"
0,"
0*"
0q!
0o!
#4430000
1"
#4440000
0!
0"
#4450000
1"
#4460000
1!
0"
01"
10"
1G!
1M!
#4470000
1"
0j!
0h!
0Q!
0O!
#4480000
0!
0"
#4490000
1"
#4500000
1!
0"
12"
00"
0G!
0M!
#4510000
1"
1j!
1h!
1Q!
1O!
1,"
1*"
1q!
1o!
#4520000
0!
0"
#4530000
1"
#4540000
1!
0"
02"
11"
0,"
0*"
0q!
0o!
#4550000
1"
#4560000
0!
0"
#4570000
1"
#4580000
1!
0"
01"
10"
1G!
1M!
#4590000
1"
0j!
0h!
0Q!
0O!
#4600000
0!
0"
#4610000
1"
#4620000
1!
0"
12"
00"
0G!
0M!
#4630000
1"
1j!
1h!
1Q!
1O!
1,"
1*"
1q!
1o!
#4640000
0!
0"
#4650000
1"
#4660000
1!
0"
02"
11"
0,"
0*"
0q!
0o!
#4670000
1"
#4680000
0!
0"
#4690000
1"
#4700000
1!
0"
01"
10"
1G!
1M!
#4710000
1"
0j!
0h!
0Q!
0O!
#4720000
0!
0"
#4730000
1"
#4740000
1!
0"
12"
00"
0G!
0M!
#4750000
1"
1j!
1h!
1Q!
1O!
1,"
1*"
1q!
1o!
#4760000
0!
0"
#4770000
1"
#4780000
1!
0"
02"
11"
0,"
0*"
0q!
0o!
#4790000
1"
#4800000
0!
0"
#4810000
1"
#4820000
1!
0"
01"
10"
1G!
1M!
#4830000
1"
0j!
0h!
0Q!
0O!
#4840000
0!
0"
#4850000
1"
#4860000
1!
0"
12"
00"
0G!
0M!
#4870000
1"
1j!
1h!
1Q!
1O!
1,"
1*"
1q!
1o!
#4880000
0!
0"
#4890000
1"
#4900000
1!
0"
02"
11"
0,"
0*"
0q!
0o!
#4910000
1"
#4920000
0!
0"
#4930000
1"
#4940000
1!
0"
01"
10"
1G!
1M!
#4950000
1"
0j!
0h!
0Q!
0O!
#4960000
0!
0"
#4970000
1"
#4980000
1!
0"
12"
00"
0G!
0M!
#4990000
1"
1j!
1h!
1Q!
1O!
1,"
1*"
1q!
1o!
#5000000
0!
0"
